{
	"British Pound"		:	"GBP",
	"Euro"				:   "EUR",
	"US Dollar"         :   "USD",
	"Japanese Yen"      :   "JPY",
	"Chinese Yuan"      :   "CNY",
	"Australian Dollar"	:   "AUD",
	"Swiss Franc"       :   "CHF",
	"Canadian Dollar"   :   "CAD",
	"Thai Baht"         :   "THB",
	"Indian Rupee"      :   "INR",
	"Indonesian Rupiah" :   "IDR",
	"Hong Kong Dollar"  :   "HKD"
}